{
  "type": "service_account",
  "project_id": "notification-wake-up",
  "private_key_id": "c586693e424e57a3a4cfe4802bc705a00096b174",
  "private_key": "-----BEGIN PRIVATE KEY-----\nMIIEvQIBADANBgkqhkiG9w0BAQEFAASCBKcwggSjAgEAAoIBAQDCsIOSt3SsEeED\nhHrRIO1Nm1W7eg+jo7VzAAPguVXOQMvkPWYucSG0ksQeZoTG/f68f9N5TSGAjNub\nyj75QhqrLwZl8ovvfO/QbHBPE2FZdpFsX5gVZOl+BH57Gyyoas7WuSC7CQpzYzIW\n8KvyTvJv0iotbO8t0Sq6oFPLjEwnUGexOpojcpyw21GFAHWTT3Z/Nh5byN0brAgE\nSxl9zivc5oIM7Fg/c/8wVj2cepGUfRYVytfULcHBGZ05mt4UfvXDSTPArlg26CDj\nimTWIPQ5S4akcsoSt2JJ0o+jc6PxlZ1X9yzCjVJER3EB+spBbvOUlhaUfMk2CgqN\nDFbyRP5ZAgMBAAECggEAF2Jrv1LlQui32fwO43Ecx7pNayIPYFSgzgIVtSeVuJsc\nUlsUm6XvijipsUwXjS5Da2FAJZz/1ei1VQpPE5He0appjpO6PqcHSAXKXJkjk4MU\nFwwJYKJ5EC+agI9kRwtjMjPUzFpa5L6orMw2HvngEVHRSpj/xoVN6FIrFnMQz5TZ\nPGnOFosqw3Yayw6BPuX0jcC3CMJoNsLSsWRO/WAI7iqmS2zhRNKD6SrsmAVsuWo2\n7oKRXkqnJ7Jq/rKC7UodAP4fxqsrLacxPciHxx7aWVjC57m7ICHH1TpbuJCtMffJ\nf5EuU0OUMZ/e/9aL9DH0T8QNAjanDOeoxp2doTsBQQKBgQDyO5dUjqz58lv2yEYe\nXvxlImtti+JZ6whRIFlu20dCNKlvFFQrdU4Xbi2IfeikiYJ+mYccGMJuCvBSKxK8\nOouM79AlnMR4G6hA0mI1rdlQk8Elb7Ei66Ru6DzNSl1f8vIfkXId3oeG4ZXfF2h2\n91atmtZWnf8zsM2F9k8shwHDoQKBgQDNwS793DaQdG8zBf0jR3DE/tyAx2XkMAdN\n798E9xDCxXbsOC0Xki190GzMeLXi92tU/w6v02ME/53V2qsKNOloYjJivkMBUx4G\nIlHE1xHbqH8UFxnGP1zGfDSk2HGmeQiJSN4fFHuKF5/ExdyR+5VG75lEpkeOuLw7\nRth5xJo/uQKBgQDNwIZLIaGV8SHiXb0JgR8b/H+Jnj8Wp4f5+ONeQU2m07pziq3v\n+ATr6/8rJ9+bGt5IELptyC4mcI4vDT0tuwDcJrsDp8ROTRe+b7VR6ShkxAxUcyng\nAo46UnOK4LatkFvPKqjm7CTsEeNOisCGBJOQhKu5CR1DV9NLDau0o7yA4QKBgEBB\nq55GTpgQdMXXgfWpkvNCsLRbEVwRD8bsOZcAXbCmIHynEpYA5cob9E5rCEqogFGc\nEgchGhRui+lEkBPw8E/UEu45gw1/2qmJwEWb8QzLc1xf1oHOOfgWxA4TNnMJ63uM\nUSodqHM464F1VWwVyMnNe+0vjLtqwAY3GtX0a0OpAoGAIZekfsoXutm+F6D7m1pp\nOCj9Ib86XD+r7wLyHm7nFL1dKGLjfJjkL20qxe7A/EN9ZXf9ZJayKn9zLAWeDz2r\nl0He1NK4OGPfbQ/npA8vySkU3HzLKfZ0cJsx1/3WLD4WpmO2jWdRlCw1reE6Dx1X\nDp0Fy1xWJ8TrM+aNY3dR3G4=\n-----END PRIVATE KEY-----\n",
  "client_email": "firebase-adminsdk-e2dl8@notification-wake-up.iam.gserviceaccount.com",
  "client_id": "105629422290192660761",
  "auth_uri": "https://accounts.google.com/o/oauth2/auth",
  "token_uri": "https://oauth2.googleapis.com/token",
  "auth_provider_x509_cert_url": "https://www.googleapis.com/oauth2/v1/certs",
  "client_x509_cert_url": "https://www.googleapis.com/robot/v1/metadata/x509/firebase-adminsdk-e2dl8%40notification-wake-up.iam.gserviceaccount.com",
  "universe_domain": "googleapis.com"
}
